EESchema Schematic File Version 4
EELAYER 30 0
EELAYER END
$Descr A4 11693 8268
encoding utf-8
Sheet 1 1
Title "TRSpectrometer Interface Board"
Date "2021-04-13"
Rev "1.0.0"
Comp ""
Comment1 ""
Comment2 ""
Comment3 ""
Comment4 ""
$EndDescr
$Comp
L Device:R R4
U 1 1 60756F29
P 6500 1950
F 0 "R4" V 6293 1950 50  0000 C CNN
F 1 "2k2" V 6384 1950 50  0000 C CNN
F 2 "Resistor_THT:R_Axial_DIN0207_L6.3mm_D2.5mm_P7.62mm_Horizontal" V 6430 1950 50  0001 C CNN
F 3 "~" H 6500 1950 50  0001 C CNN
	1    6500 1950
	0    1    1    0   
$EndComp
$Comp
L Connector:Conn_Coaxial J1
U 1 1 60765F97
P 1500 1300
F 0 "J1" H 1600 1275 50  0000 L CNN
F 1 "LASER_SYNC_IN" H 1600 1184 50  0000 L CNN
F 2 "CustomPart:BNC_Socket_AdamTech" H 1500 1300 50  0001 C CNN
F 3 " ~" H 1500 1300 50  0001 C CNN
	1    1500 1300
	-1   0    0    -1  
$EndComp
$Comp
L power:GND #PWR013
U 1 1 6079F6B0
P 5850 3350
F 0 "#PWR013" H 5850 3100 50  0001 C CNN
F 1 "GND" H 5855 3177 50  0000 C CNN
F 2 "" H 5850 3350 50  0001 C CNN
F 3 "" H 5850 3350 50  0001 C CNN
	1    5850 3350
	1    0    0    -1  
$EndComp
$Comp
L Device:R R5
U 1 1 607EDB73
P 6800 1950
F 0 "R5" V 7007 1950 50  0000 C CNN
F 1 "3k3" V 6916 1950 50  0000 C CNN
F 2 "Resistor_THT:R_Axial_DIN0207_L6.3mm_D2.5mm_P7.62mm_Horizontal" V 6730 1950 50  0001 C CNN
F 3 "~" H 6800 1950 50  0001 C CNN
	1    6800 1950
	0    -1   -1   0   
$EndComp
$Comp
L power:+5V #PWR02
U 1 1 607F2A3D
P 5850 950
F 0 "#PWR02" H 5850 800 50  0001 C CNN
F 1 "+5V" H 5865 1123 50  0000 C CNN
F 2 "" H 5850 950 50  0001 C CNN
F 3 "" H 5850 950 50  0001 C CNN
	1    5850 950 
	1    0    0    -1  
$EndComp
Wire Wire Line
	5850 950  5850 1350
$Comp
L power:GND #PWR01
U 1 1 60842BCA
P 5550 950
F 0 "#PWR01" H 5550 700 50  0001 C CNN
F 1 "GND" H 5555 777 50  0000 C CNN
F 2 "" H 5550 950 50  0001 C CNN
F 3 "" H 5550 950 50  0001 C CNN
	1    5550 950 
	1    0    0    -1  
$EndComp
$Comp
L Device:C C1
U 1 1 6084428D
P 5700 950
F 0 "C1" V 5448 950 50  0000 C CNN
F 1 "100n" V 5539 950 50  0000 C CNN
F 2 "Capacitor_THT:C_Disc_D4.7mm_W2.5mm_P5.00mm" H 5738 800 50  0001 C CNN
F 3 "~" H 5700 950 50  0001 C CNN
	1    5700 950 
	0    1    1    0   
$EndComp
Connection ~ 5850 950 
Wire Wire Line
	5350 2050 5350 2150
Text GLabel 4900 1450 0    50   Input ~ 0
QA+
Text GLabel 4900 1750 0    50   Input ~ 0
QA-
Text GLabel 4900 1850 0    50   Input ~ 0
QB+
Text GLabel 4900 2150 0    50   Input ~ 0
QB-
Wire Wire Line
	6650 2200 6650 1950
Connection ~ 6650 1950
$Comp
L Interface:AM26LV32xD U2
U 1 1 6075D6CD
P 5850 2350
F 0 "U2" H 6200 3450 50  0000 C CNN
F 1 "AM26LS33ACN" H 6200 3350 50  0000 C CNN
F 2 "Package_DIP:DIP-16_W7.62mm" H 6850 1400 50  0001 C CNN
F 3 "http://www.ti.com/lit/ds/symlink/am26ls32a.pdf" H 5850 1950 50  0001 C CNN
	1    5850 2350
	1    0    0    -1  
$EndComp
$Comp
L 74xx:74HC14 U1
U 4 1 608EFDBA
P 2300 2000
F 0 "U1" H 2300 1683 50  0000 C CNN
F 1 "74HC14" H 2300 1774 50  0000 C CNN
F 2 "Package_DIP:DIP-14_W7.62mm" H 2300 2000 50  0001 C CNN
F 3 "http://www.ti.com/lit/gpn/sn74HC14" H 2300 2000 50  0001 C CNN
	4    2300 2000
	-1   0    0    1   
$EndComp
NoConn ~ 5350 2950
NoConn ~ 5350 3150
NoConn ~ 6350 3050
$Comp
L power:+5V #PWR03
U 1 1 60A87B0E
P 1700 1000
F 0 "#PWR03" H 1700 850 50  0001 C CNN
F 1 "+5V" H 1715 1173 50  0000 C CNN
F 2 "" H 1700 1000 50  0001 C CNN
F 3 "" H 1700 1000 50  0001 C CNN
	1    1700 1000
	1    0    0    -1  
$EndComp
$Comp
L Device:R R1
U 1 1 60A87B14
P 1700 1150
F 0 "R1" H 1770 1196 50  0000 L CNN
F 1 "10k" H 1770 1105 50  0000 L CNN
F 2 "Resistor_THT:R_Axial_DIN0207_L6.3mm_D2.5mm_P7.62mm_Horizontal" V 1630 1150 50  0001 C CNN
F 3 "~" H 1700 1150 50  0001 C CNN
	1    1700 1150
	-1   0    0    1   
$EndComp
$Comp
L power:GND #PWR04
U 1 1 60A87B26
P 2000 1600
F 0 "#PWR04" H 2000 1350 50  0001 C CNN
F 1 "GND" H 2005 1427 50  0000 C CNN
F 2 "" H 2000 1600 50  0001 C CNN
F 3 "" H 2000 1600 50  0001 C CNN
	1    2000 1600
	1    0    0    -1  
$EndComp
Wire Wire Line
	2000 1600 1500 1600
Wire Wire Line
	1500 1600 1500 1500
Connection ~ 2000 1600
Wire Wire Line
	2000 2000 1700 2000
Connection ~ 2000 3000
Wire Wire Line
	1500 3000 1500 2900
Wire Wire Line
	2000 3000 1500 3000
$Comp
L power:GND #PWR011
U 1 1 60A9E8F6
P 2000 3000
F 0 "#PWR011" H 2000 2750 50  0001 C CNN
F 1 "GND" H 2005 2827 50  0000 C CNN
F 2 "" H 2000 3000 50  0001 C CNN
F 3 "" H 2000 3000 50  0001 C CNN
	1    2000 3000
	1    0    0    -1  
$EndComp
$Comp
L Device:R R7
U 1 1 60A9E8E4
P 1700 2550
F 0 "R7" H 1770 2596 50  0000 L CNN
F 1 "10k" H 1770 2505 50  0000 L CNN
F 2 "Resistor_THT:R_Axial_DIN0207_L6.3mm_D2.5mm_P7.62mm_Horizontal" V 1630 2550 50  0001 C CNN
F 3 "~" H 1700 2550 50  0001 C CNN
	1    1700 2550
	-1   0    0    1   
$EndComp
$Comp
L power:+5V #PWR09
U 1 1 60A9E8DE
P 1700 2400
F 0 "#PWR09" H 1700 2250 50  0001 C CNN
F 1 "+5V" H 1715 2573 50  0000 C CNN
F 2 "" H 1700 2400 50  0001 C CNN
F 3 "" H 1700 2400 50  0001 C CNN
	1    1700 2400
	1    0    0    -1  
$EndComp
$Comp
L 74xx:74HC14 U1
U 2 1 6096DF12
P 2300 2700
F 0 "U1" H 2300 2383 50  0000 C CNN
F 1 "74HC14" H 2300 2474 50  0000 C CNN
F 2 "Package_DIP:DIP-14_W7.62mm" H 2300 2700 50  0001 C CNN
F 3 "http://www.ti.com/lit/gpn/sn74HC14" H 2300 2700 50  0001 C CNN
	2    2300 2700
	1    0    0    -1  
$EndComp
$Comp
L Connector:Conn_Coaxial J3
U 1 1 60763AF3
P 1500 2700
F 0 "J3" H 1600 2675 50  0000 L CNN
F 1 "CHOPPER_SYNC_IN" H 1600 2584 50  0000 L CNN
F 2 "CustomPart:BNC_Socket_AdamTech" H 1500 2700 50  0001 C CNN
F 3 " ~" H 1500 2700 50  0001 C CNN
	1    1500 2700
	-1   0    0    -1  
$EndComp
$Comp
L Connector:Conn_Coaxial J2
U 1 1 607630EF
P 1500 2000
F 0 "J2" H 1600 1882 50  0000 L CNN
F 1 "CAMERA_TRIGGER_OUT" H 1600 1973 50  0000 L CNN
F 2 "CustomPart:BNC_Socket_AdamTech" H 1500 2000 50  0001 C CNN
F 3 " ~" H 1500 2000 50  0001 C CNN
	1    1500 2000
	-1   0    0    1   
$EndComp
Wire Wire Line
	1500 1800 1500 1600
Connection ~ 1500 1600
Wire Wire Line
	2000 3400 1700 3400
$Comp
L Connector:Conn_Coaxial J4
U 1 1 6076491B
P 1500 3400
F 0 "J4" H 1600 3282 50  0000 L CNN
F 1 "CHOPPER_SYNC_OUT" H 1600 3373 50  0000 L CNN
F 2 "CustomPart:BNC_Socket_AdamTech" H 1500 3400 50  0001 C CNN
F 3 " ~" H 1500 3400 50  0001 C CNN
	1    1500 3400
	-1   0    0    1   
$EndComp
Wire Wire Line
	1500 3200 1500 3000
Connection ~ 1500 3000
Text GLabel 1900 6150 2    50   Output ~ 0
QB-
Text GLabel 1900 6350 2    50   Output ~ 0
QB+
Text GLabel 1900 6550 2    50   Output ~ 0
QA-
Text GLabel 1900 6750 2    50   Output ~ 0
QA+
NoConn ~ 1900 5650
NoConn ~ 1900 5850
NoConn ~ 1900 5450
$Comp
L Connector:DB15_Female_MountingHoles J5
U 1 1 60760B3A
P 1600 6150
F 0 "J5" H 1755 6059 50  0000 L CNN
F 1 "DELAY_USERIO" H 1755 6150 50  0000 L CNN
F 2 "dsub-kicad-library:DSUB-15_Female_Horizontal_P2.77x2.84mm_EdgePinOffset7.70mm_Housed_MountingHolesOffset9.12mm" H 1600 6150 50  0001 C CNN
F 3 " ~" H 1600 6150 50  0001 C CNN
	1    1600 6150
	-1   0    0    1   
$EndComp
$Comp
L power:GND #PWR015
U 1 1 60A562B9
P 3500 6750
F 0 "#PWR015" H 3500 6500 50  0001 C CNN
F 1 "GND" H 3505 6577 50  0000 C CNN
F 2 "" H 3500 6750 50  0001 C CNN
F 3 "" H 3500 6750 50  0001 C CNN
	1    3500 6750
	1    0    0    -1  
$EndComp
$Comp
L Device:R R15
U 1 1 60A0E702
P 2600 6650
F 0 "R15" H 2670 6696 50  0000 L CNN
F 1 "10k" H 2670 6605 50  0000 L CNN
F 2 "Resistor_THT:R_Axial_DIN0207_L6.3mm_D2.5mm_P7.62mm_Horizontal" V 2530 6650 50  0001 C CNN
F 3 "~" H 2600 6650 50  0001 C CNN
	1    2600 6650
	-1   0    0    1   
$EndComp
$Comp
L power:+5V #PWR016
U 1 1 60A118AC
P 2600 6850
F 0 "#PWR016" H 2600 6700 50  0001 C CNN
F 1 "+5V" H 2615 7023 50  0000 C CNN
F 2 "" H 2600 6850 50  0001 C CNN
F 3 "" H 2600 6850 50  0001 C CNN
	1    2600 6850
	-1   0    0    1   
$EndComp
$Comp
L 74xx:74HC14 U1
U 6 1 60972383
P 2900 6450
F 0 "U1" H 2900 6767 50  0000 C CNN
F 1 "74HC14" H 2900 6676 50  0000 C CNN
F 2 "Package_DIP:DIP-14_W7.62mm" H 2900 6450 50  0001 C CNN
F 3 "http://www.ti.com/lit/gpn/sn74HC14" H 2900 6450 50  0001 C CNN
	6    2900 6450
	1    0    0    -1  
$EndComp
$Comp
L Device:R R3
U 1 1 60DCDB36
P 2900 1450
F 0 "R3" H 2831 1404 50  0000 R CNN
F 1 "3k3" H 2831 1495 50  0000 R CNN
F 2 "Resistor_THT:R_Axial_DIN0207_L6.3mm_D2.5mm_P7.62mm_Horizontal" V 2830 1450 50  0001 C CNN
F 3 "~" H 2900 1450 50  0001 C CNN
	1    2900 1450
	1    0    0    1   
$EndComp
$Comp
L Device:R R2
U 1 1 60DCDB3C
P 2750 1300
F 0 "R2" V 2543 1300 50  0000 C CNN
F 1 "2k2" V 2634 1300 50  0000 C CNN
F 2 "Resistor_THT:R_Axial_DIN0207_L6.3mm_D2.5mm_P7.62mm_Horizontal" V 2680 1300 50  0001 C CNN
F 3 "~" H 2750 1300 50  0001 C CNN
	1    2750 1300
	0    1    1    0   
$EndComp
Text GLabel 3000 1300 2    50   Output ~ 0
LASER_SYNC_IN
Wire Wire Line
	3000 1300 2900 1300
Connection ~ 2900 1300
$Comp
L Device:R R12
U 1 1 60DE2D86
P 2900 2850
F 0 "R12" H 2831 2804 50  0000 R CNN
F 1 "3k3" H 2831 2895 50  0000 R CNN
F 2 "Resistor_THT:R_Axial_DIN0207_L6.3mm_D2.5mm_P7.62mm_Horizontal" V 2830 2850 50  0001 C CNN
F 3 "~" H 2900 2850 50  0001 C CNN
	1    2900 2850
	1    0    0    1   
$EndComp
$Comp
L Device:R R8
U 1 1 60DE2D8C
P 2750 2700
F 0 "R8" V 2543 2700 50  0000 C CNN
F 1 "2k2" V 2634 2700 50  0000 C CNN
F 2 "Resistor_THT:R_Axial_DIN0207_L6.3mm_D2.5mm_P7.62mm_Horizontal" V 2680 2700 50  0001 C CNN
F 3 "~" H 2750 2700 50  0001 C CNN
	1    2750 2700
	0    1    1    0   
$EndComp
Connection ~ 2900 2700
$Comp
L Device:R R14
U 1 1 60DE90A4
P 3500 6600
F 0 "R14" V 3400 6600 50  0000 C CNN
F 1 "3k3" V 3300 6600 50  0000 C CNN
F 2 "Resistor_THT:R_Axial_DIN0207_L6.3mm_D2.5mm_P7.62mm_Horizontal" V 3430 6600 50  0001 C CNN
F 3 "~" H 3500 6600 50  0001 C CNN
	1    3500 6600
	1    0    0    -1  
$EndComp
$Comp
L Device:R R13
U 1 1 60DE90AA
P 3350 6450
F 0 "R13" V 3557 6450 50  0000 C CNN
F 1 "2k2" V 3466 6450 50  0000 C CNN
F 2 "Resistor_THT:R_Axial_DIN0207_L6.3mm_D2.5mm_P7.62mm_Horizontal" V 3280 6450 50  0001 C CNN
F 3 "~" H 3350 6450 50  0001 C CNN
	1    3350 6450
	0    -1   -1   0   
$EndComp
Text GLabel 3600 6450 2    50   Output ~ 0
DELAY_TRIG_IN
$Comp
L power:+5V #PWR05
U 1 1 60E0D93C
P 10450 1750
F 0 "#PWR05" H 10450 1600 50  0001 C CNN
F 1 "+5V" H 10465 1923 50  0000 C CNN
F 2 "" H 10450 1750 50  0001 C CNN
F 3 "" H 10450 1750 50  0001 C CNN
	1    10450 1750
	-1   0    0    1   
$EndComp
$Comp
L power:GND #PWR08
U 1 1 60E2024D
P 10450 2350
F 0 "#PWR08" H 10450 2100 50  0001 C CNN
F 1 "GND" H 10455 2177 50  0000 C CNN
F 2 "" H 10450 2350 50  0001 C CNN
F 3 "" H 10450 2350 50  0001 C CNN
	1    10450 2350
	1    0    0    -1  
$EndComp
Wire Wire Line
	10450 2350 10250 2350
NoConn ~ 10250 1850
NoConn ~ 10250 2550
NoConn ~ 10250 2650
NoConn ~ 10250 2850
NoConn ~ 10250 2950
NoConn ~ 10250 3050
NoConn ~ 10250 3150
NoConn ~ 10250 3250
NoConn ~ 10250 3450
NoConn ~ 10250 3550
NoConn ~ 10250 3650
NoConn ~ 10250 3750
NoConn ~ 10250 3850
NoConn ~ 10250 3950
NoConn ~ 10250 4050
NoConn ~ 10250 4150
NoConn ~ 10250 4250
NoConn ~ 10250 4450
NoConn ~ 10250 4550
NoConn ~ 10250 4650
NoConn ~ 10250 4750
NoConn ~ 10250 4850
NoConn ~ 10250 4950
NoConn ~ 10250 5050
NoConn ~ 10250 5150
NoConn ~ 10250 5250
NoConn ~ 10250 5350
NoConn ~ 10250 5450
NoConn ~ 10250 5550
NoConn ~ 10250 5650
NoConn ~ 10250 5750
NoConn ~ 9200 6200
NoConn ~ 9100 6200
NoConn ~ 9000 6200
NoConn ~ 8900 6200
NoConn ~ 8800 6200
NoConn ~ 8700 6200
NoConn ~ 7650 5250
NoConn ~ 7650 4550
NoConn ~ 7650 4450
NoConn ~ 7650 4350
NoConn ~ 7650 4250
NoConn ~ 7650 4150
NoConn ~ 7650 4050
NoConn ~ 7650 3950
NoConn ~ 7650 3850
NoConn ~ 7650 3650
NoConn ~ 7650 3550
NoConn ~ 7650 3450
NoConn ~ 7650 3350
NoConn ~ 7650 3250
NoConn ~ 7650 3150
NoConn ~ 7650 3050
NoConn ~ 7650 2950
NoConn ~ 7650 2850
NoConn ~ 7650 2750
NoConn ~ 7650 2650
NoConn ~ 7650 2550
NoConn ~ 7650 2450
NoConn ~ 7650 2350
NoConn ~ 7650 2250
NoConn ~ 7650 2150
NoConn ~ 7650 2050
NoConn ~ 7650 1950
NoConn ~ 7650 1850
NoConn ~ 7650 1750
NoConn ~ 7650 1650
NoConn ~ 7650 1550
NoConn ~ 7650 1450
NoConn ~ 10250 1450
$Comp
L power:PWR_FLAG #FLG01
U 1 1 60E7FB0C
P 10450 1750
F 0 "#FLG01" H 10450 1825 50  0001 C CNN
F 1 "PWR_FLAG" V 10450 1878 50  0000 L CNN
F 2 "" H 10450 1750 50  0001 C CNN
F 3 "~" H 10450 1750 50  0001 C CNN
	1    10450 1750
	0    1    1    0   
$EndComp
$Comp
L power:PWR_FLAG #FLG02
U 1 1 60EE90E9
P 10450 2350
F 0 "#FLG02" H 10450 2425 50  0001 C CNN
F 1 "PWR_FLAG" V 10450 2478 50  0000 L CNN
F 2 "" H 10450 2350 50  0001 C CNN
F 3 "~" H 10450 2350 50  0001 C CNN
	1    10450 2350
	0    1    1    0   
$EndComp
Connection ~ 10450 2350
Text GLabel 7650 5750 0    50   Input ~ 0
QA
Text GLabel 7650 4650 0    50   Input ~ 0
QB
Wire Wire Line
	10250 2350 10250 2250
Wire Wire Line
	10250 2250 10250 2150
Connection ~ 10250 2250
Connection ~ 10250 2350
$Comp
L arduino:Arduino_Due_Shield XA1
U 1 1 60757866
P 8950 3600
F 0 "XA1" H 8950 1113 60  0000 C CNN
F 1 "Arduino_Due_Shield" H 8950 1219 60  0000 C CNN
F 2 "Arduino:Arduino_Due_Shield" H 9650 6350 60  0001 C CNN
F 3 "https://store.arduino.cc/arduino-due" H 9650 6350 60  0001 C CNN
	1    8950 3600
	-1   0    0    1   
$EndComp
Text GLabel 7650 5150 0    50   Input ~ 0
DELAY_TRIG_IN
Text GLabel 2600 2000 2    50   Input ~ 0
CAMERA_TRIG_OUT
Text GLabel 7650 5450 0    50   Output ~ 0
CAMERA_TRIG_OUT
Text GLabel 2600 3400 2    50   Input ~ 0
CHOPPER_SYNC_OUT
Text GLabel 7650 5650 0    50   Output ~ 0
CHOPPER_SYNC_OUT
$Comp
L power:GND #PWR010
U 1 1 60F92836
P 5350 2450
F 0 "#PWR010" H 5350 2200 50  0001 C CNN
F 1 "GND" V 5355 2322 50  0000 R CNN
F 2 "" H 5350 2450 50  0001 C CNN
F 3 "" H 5350 2450 50  0001 C CNN
	1    5350 2450
	0    1    1    0   
$EndComp
$Comp
L power:+5V #PWR07
U 1 1 60F967B3
P 5350 2250
F 0 "#PWR07" H 5350 2100 50  0001 C CNN
F 1 "+5V" V 5365 2378 50  0000 L CNN
F 2 "" H 5350 2250 50  0001 C CNN
F 3 "" H 5350 2250 50  0001 C CNN
	1    5350 2250
	0    -1   -1   0   
$EndComp
Text Label 2150 6450 0    50   ~ 0
TRIG_OUT
$Comp
L power:GND #PWR014
U 1 1 6139CE11
P 1350 5250
F 0 "#PWR014" H 1350 5000 50  0001 C CNN
F 1 "GND" H 1355 5077 50  0000 C CNN
F 2 "" H 1350 5250 50  0001 C CNN
F 3 "" H 1350 5250 50  0001 C CNN
	1    1350 5250
	1    0    0    -1  
$EndComp
Wire Wire Line
	1900 6250 2300 6250
Wire Wire Line
	2300 6250 2300 6050
Wire Wire Line
	2300 5250 1600 5250
Wire Wire Line
	1350 5250 1600 5250
Connection ~ 1600 5250
Wire Wire Line
	1900 6050 2300 6050
Connection ~ 2300 6050
Wire Wire Line
	2300 6050 2300 5550
Wire Wire Line
	1900 5550 2300 5550
Connection ~ 2300 5550
Wire Wire Line
	2300 5550 2300 5250
Wire Wire Line
	3500 6450 3600 6450
Connection ~ 3500 6450
Wire Wire Line
	3000 2700 2900 2700
Text GLabel 3000 2700 2    50   Output ~ 0
CHOPPER_SYNC_IN
NoConn ~ 10250 1950
NoConn ~ 10250 2050
Wire Wire Line
	10250 1750 10450 1750
Connection ~ 10450 1750
Text GLabel 6650 2200 3    50   Output ~ 0
QB
Wire Wire Line
	5350 2150 5050 2150
Connection ~ 5050 2150
Wire Wire Line
	5350 1850 5050 1850
Connection ~ 5050 1850
$Comp
L Device:R R6
U 1 1 6088B1D3
P 5050 2000
F 0 "R6" H 5120 2046 50  0000 L CNN
F 1 "100" H 5120 1955 50  0000 L CNN
F 2 "Resistor_THT:R_Axial_DIN0207_L6.3mm_D2.5mm_P7.62mm_Horizontal" V 4980 2000 50  0001 C CNN
F 3 "~" H 5050 2000 50  0001 C CNN
	1    5050 2000
	1    0    0    -1  
$EndComp
Wire Wire Line
	5350 1750 5050 1750
Connection ~ 5050 1750
Wire Wire Line
	5350 1450 5050 1450
Connection ~ 5050 1450
$Comp
L Device:R R9
U 1 1 608985A2
P 5050 1600
F 0 "R9" H 5120 1646 50  0000 L CNN
F 1 "100" H 5120 1555 50  0000 L CNN
F 2 "Resistor_THT:R_Axial_DIN0207_L6.3mm_D2.5mm_P7.62mm_Horizontal" V 4980 1600 50  0001 C CNN
F 3 "~" H 5050 1600 50  0001 C CNN
	1    5050 1600
	1    0    0    -1  
$EndComp
Wire Wire Line
	4900 1750 5050 1750
Wire Wire Line
	4900 1450 5050 1450
Wire Wire Line
	4900 2150 5050 2150
Wire Wire Line
	4900 1850 5050 1850
Text GLabel 7650 5350 0    50   Input ~ 0
CHOPPER_SYNC_IN
Text GLabel 7650 3750 0    50   Input ~ 0
LASER_SYNC_IN
Wire Wire Line
	2250 1600 2900 1600
Wire Wire Line
	2000 1600 2250 1600
Connection ~ 2250 1600
Wire Wire Line
	2250 1450 2250 1600
Connection ~ 1700 1000
Wire Wire Line
	2250 1000 1700 1000
Wire Wire Line
	2250 1150 2250 1000
$Comp
L 74xx:74HC14 U1
U 3 1 608F1118
P 2300 3400
F 0 "U1" H 2300 3717 50  0000 C CNN
F 1 "74HC14" H 2300 3626 50  0000 C CNN
F 2 "Package_DIP:DIP-14_W7.62mm" H 2300 3400 50  0001 C CNN
F 3 "http://www.ti.com/lit/gpn/sn74HC14" H 2300 3400 50  0001 C CNN
	3    2300 3400
	-1   0    0    1   
$EndComp
$Comp
L 74xx:74HC14 U1
U 1 1 608ED967
P 2300 1300
F 0 "U1" H 2300 1617 50  0000 C CNN
F 1 "74HC14" H 2300 1526 50  0000 C CNN
F 2 "Package_DIP:DIP-14_W7.62mm" H 2300 1300 50  0001 C CNN
F 3 "http://www.ti.com/lit/gpn/sn74HC14" H 2300 1300 50  0001 C CNN
	1    2300 1300
	1    0    0    -1  
$EndComp
Wire Wire Line
	1700 2700 2000 2700
Connection ~ 1700 2700
Wire Wire Line
	1700 1300 2000 1300
Connection ~ 1700 1300
NoConn ~ 7650 5050
NoConn ~ 10250 3350
NoConn ~ 1900 5950
NoConn ~ 1900 6650
NoConn ~ 1900 5750
Wire Wire Line
	1900 6450 2600 6450
Wire Wire Line
	2600 6450 2600 6500
Wire Wire Line
	2600 6800 2600 6850
Connection ~ 2600 6450
Wire Wire Line
	5350 1450 5350 1550
NoConn ~ 5350 2650
NoConn ~ 5350 2850
Wire Wire Line
	2000 3000 2900 3000
Wire Wire Line
	10250 1550 10250 1650
Wire Wire Line
	10250 1650 10250 1750
Connection ~ 10250 1650
Connection ~ 10250 1750
Connection ~ 6650 1650
Wire Wire Line
	6650 1550 6650 1650
Text GLabel 6650 1550 1    50   Output ~ 0
QA
$Comp
L Device:R R11
U 1 1 6076FB2B
P 6800 1650
F 0 "R11" V 7007 1650 50  0000 C CNN
F 1 "3k3" V 6916 1650 50  0000 C CNN
F 2 "Resistor_THT:R_Axial_DIN0207_L6.3mm_D2.5mm_P7.62mm_Horizontal" V 6730 1650 50  0001 C CNN
F 3 "~" H 6800 1650 50  0001 C CNN
	1    6800 1650
	0    -1   -1   0   
$EndComp
$Comp
L Device:R R10
U 1 1 6076FB31
P 6500 1650
F 0 "R10" V 6293 1650 50  0000 C CNN
F 1 "2k2" V 6384 1650 50  0000 C CNN
F 2 "Resistor_THT:R_Axial_DIN0207_L6.3mm_D2.5mm_P7.62mm_Horizontal" V 6430 1650 50  0001 C CNN
F 3 "~" H 6500 1650 50  0001 C CNN
	1    6500 1650
	0    1    1    0   
$EndComp
Wire Wire Line
	6950 1650 6950 1950
$Comp
L power:GND #PWR0101
U 1 1 609BBA9E
P 6950 2050
F 0 "#PWR0101" H 6950 1800 50  0001 C CNN
F 1 "GND" H 6955 1877 50  0000 C CNN
F 2 "" H 6950 2050 50  0001 C CNN
F 3 "" H 6950 2050 50  0001 C CNN
	1    6950 2050
	1    0    0    -1  
$EndComp
Wire Wire Line
	6950 1950 6950 2050
Connection ~ 6950 1950
NoConn ~ 6350 2750
$Comp
L Device:Jumper JP1
U 1 1 609C98A1
P 2300 6850
F 0 "JP1" H 2300 7000 50  0000 C CNN
F 1 "Jumper" H 2300 7100 50  0000 C CNN
F 2 "Connector_PinHeader_2.54mm:PinHeader_1x02_P2.54mm_Vertical" H 2300 6850 50  0001 C CNN
F 3 "~" H 2300 6850 50  0001 C CNN
	1    2300 6850
	1    0    0    1   
$EndComp
Connection ~ 2600 6850
Wire Wire Line
	2000 6850 1900 6850
Wire Wire Line
	7650 4850 7650 4950
Text GLabel 7650 5550 0    50   Input ~ 0
LASER_SYNC_IN
NoConn ~ 7650 4750
$EndSCHEMATC
